IO-PULLUP为高电平
IO-CHRG:
	高时候：USB未接入 或者 USB接入但已充满；
	低时候：USB接入 并且 充电中
IO-CHRG：
	USB插入充电：充满高电平，充电中低电平
	USB未插入：始终高电平

IO-PULLUP为高阻态
IO-CHRG：
	高时候：USB未接入；
	低时候：只要插入USB，不管有没有充满都满足条件
IO-CHRG：
	USB插入充电：充满低电平，充电中低电平
	USB未插入：始终高电平


//-----------------------------------------------------------------------------
if (IO-VBUS检测到插入) {
	此时无用的口：IO-VBAT、IO-LOWBAT

	写入IO-PULLUP为高上拉
	if (IO-CHRG为低电平) {//充电中
	  充电LED闪烁指示充电状态
	}
	else {//充满
	  充电LED常亮提示充满
	}

	if (IO-VDD检测到低电平) {//开机状态
	  电源LED常亮
	}
	else{//关机状态
	  电源LED熄灭
	}
}
else {
	此时无用的口：IO-CHRG

	释放IO-PULLUP为高阻态
	检测IO-VBAT电压以得到电池电量

	if (IO-LOWBAT为低电平) {//低电量
	  if (IO-VDD检测到低电平) {//开机状态
		电源LED闪烁提示低电量
	  }
	  else{//关机状态
		电源LED熄灭
	  }
	}
	else{//有电
	  if (IO-VDD检测到低电平) {//开机状态
		电源LED常亮
	  }
	  else{//关机状态
		电源LED熄灭
	  }
	}
}
----------------------------------------------------------------------------------------------------
开机时候：
USB插入（VBUS监测到高），P0.30输出高；USB没插入，P0.30输出低
关机时候：
不管USB有没有插入，一直输出低即可
----------------------------------------------------------------------------------------------------
第一次down完程序，关机态 : OK
   开机 : OK
   		关机 : OK
   		插入USB : OK
   				关机： OK
   				拔掉USB：OK
   插入USB: OK
   		开机:
   		拔掉USB:
第一次down完程序，开机态 : OK
   关机 : OK
   		开机
   		插入USB
   插入USB:
   		关机
   		拔掉USB
----------------------------------------------------------------------------------------------------
2017年7月26日，新的PMU逻辑测试：
1、未插USB时，开关机：程序逻辑OK

2、插着USB时，开关机： 程序逻辑OK

3、关机态，插拔USB： 程序逻辑OK

4、开机态，插拔USB： 程序逻辑OK
